ST 558 Homework 4
…
Next, we will write a function that takes in the title or subject to search for, the time period to search from, and the API key. It will output the data frame of the articles in that subject and time period.

API_Query <- function(title, time, api_key) {
url <- paste("https://newsapi.org/v2/everything?q=", title, "&from=", time, "&apiKey=", api_key, sep = "")
raw_data <- httr::GET(url)
parsed_data <- fromJSON(rawToChar(raw_data$content))
final_data <- as_tibble(parsed_data$articles)
return(final_data)
}

Here, we will test our API_Query function that we just made using two different dates and subjects. The first title we will use is tesla, so we will try to find the articles from the last month regarding tesla.

API_Query("tesla", "2024-05-26", "e04b926ae2dc4c96a39f4d4011adf87a")

# A tibble: 100 × 8
   source$id $name author title description url   urlToImage publishedAt content
   <chr>     <chr> <chr>  <chr> <chr>       <chr> <chr>      <chr>       <chr>  
 1 wired     Wired Aaria… Tesl… Elon Musk … http… https://m… 2024-06-13… "Under…
 2 <NA>      [Rem… <NA>   [Rem… [Removed]   http… <NA>       1970-01-01… "[Remo…
 3 <NA>      Yaho… Sarah… Tesl… Tesla is n… http… <NA>       2024-05-31… "If yo…
 4 wired     Wired Boone… Thin… Plus: Wils… http… https://m… 2024-06-08… "Each …
 5 <NA>      Gizm… Colli… New … The Tesla … http… https://i… 2024-05-28… "The T…
 6 business… Busi… Ana A… Tesl… Tesla is a… http… https://i… 2024-06-06… "Tesla…
 7 ars-tech… Ars … Jonat… Nvid… The Tesla … http… https://c… 2024-06-04… "Enlar…
 8 the-verge The … Andre… The … The 2024 J… http… https://c… 2024-05-30… "ByAnd…
 9 <NA>      [Rem… <NA>   [Rem… [Removed]   http… <NA>       1970-01-01… "[Remo…
10 <NA>      [Rem… <NA>   [Rem… [Removed]   http… <NA>       1970-01-01… "[Remo…
# ℹ 90 more rows

Our function was successful in returning the data frame with articles containing tesla from the last month.

Next, we will use the subject “sports” and we will change the date given. We will see if this successfully returns the articles regarding sports from the date given until now.

API_Query("sports", "06-20-2024", "e04b926ae2dc4c96a39f4d4011adf87a")

# A tibble: 100 × 8
   source$id $name author title description url   urlToImage publishedAt content
   <chr>     <chr> <chr>  <chr> <chr>       <chr> <chr>      <chr>       <chr>  
 1 <NA>      BBC … <NA>   Star… "Supermode… http… https://i… 2024-06-23… "Singe…
 2 business… Busi… Lucia… How … "YouTube d… http… https://i… 2024-06-24… "YouTu…
 3 business… Busi… Benja… I dr… "The Nissa… http… https://i… 2024-06-23… "The 2…
 4 <NA>      Read… Sophi… US S… "The U.S. … http… https://r… 2024-06-21… "The U…
 5 espn      ESPN  Alden… 'Bru… "As Diamon… http… https://a… 2024-06-22… "ROYCE…
 6 <NA>      Read… Graem… More… "A poll ha… http… https://r… 2024-06-20… "A pol…
 7 wired     Wired Chris… Dnsy… "The Dnsys… http… https://m… 2024-06-21… "He wa…
 8 wired     Wired Ryan … Sony… "Sony’s Br… http… https://m… 2024-06-21… "If yo…
 9 <NA>      BBC … <NA>   Prin… "She suffe… http… https://i… 2024-06-24… "The P…
10 <NA>      Read… Owen … FIFA… "One year … http… https://r… 2024-06-24… "One y…
# ℹ 90 more rows
…
